﻿LANGUAGE,"English","Czech","German","Polish","Russian","French","Spanish","Italian"


STR_SENT_UNIT_KILLED_1,"%1.1 IS DOWN!","%1.1 TO KOUPIL","%1.1 IST TOT","%1.1 DOSTAŁ!","%1.1 погиб!","%1.1 EST À TERRE !","¡%1.1 HA CAÍDO!","%1.1 A TERRA!"
STR_SENT_UNIT_KILLED_2,"DAMN %1.1 IS DOWN!","DO HAJZLU, %1.1 TO MÁ ZA SEBOU!","VERDAMMT, %1.1 IST TOT!","CHOLERA %1.1 DOSTAŁ!","Черт! %1.1 погиб!","BON SANG, %1.1 EST À TERRE !","¡MALDITA SEA, %1.1 HA CAÍDO!","%1.1 È A TERRA!"
STR_SENT_UNIT_KILLED_3,"OH NO.... %1.1... IS DOWN!","SAKRA.... %1.1... JE TUHEJ!","OH NEIN.... %1.1... IST TOT!","OCH, NIE.... %1.1... DOSTAŁ!","О, нет! %1.1 погиб!","OH NON... %1.1... EST À TERRE !","¡OH, NO, %1.1 HA CAÍDO!","OH NO... %1.1... È A TERRA!"
STR_SENT_SUPPORT_ASK_HEAL_1,"MEDIC! POSITION %1","ZDRAVOTNÍK! POZICE %1","SANITÄTER! POSITION %1","SANITARIUSZ! POZYCJA %1","Врача! Зона %1!","INFIRMIER ! POSITION %1","¡PARAMÉDICO! POSICIÓN %1","UN DOTTORE! POSIZIONE %1"
STR_SENT_SUPPORT_ASK_REPAIR_1,"I NEED REPAIRS AT POSITION %1","POTŘEBUJEME OPRAVIT, POZICE %1","BENÖTIGE REPARATUREN! POSITION %1","POTRZEBUJĘ NAPRAW NA POZYCJI %1","%1, требуется ремонт.","BESOIN DE RÉPARATIONS SUR POSITION %1","NECESITO REPARACIONES EN POSICIÓN %1","MI SERVE UNA RIPARAZIONE IN POSIZIONE %1"
STR_SENT_SUPPORT_ASK_REFUEL_1,"I NEED FUEL AT POSITION %1","POTŘEBUJEME PALIVO, POZICE %1","BENÖTIGE TREIBSTOFF! POSITION %1","POTRZEBUJĘ PALIWA NA POZYCJI %1","%1, требуется дозаправка.","BESOIN DE CARBURANT SUR POSITION %1","NECESITO COMBUSTIBLE EN POSICIÓN %1","MI SERVE CARBURANTE IN POSIZIONE %1"
STR_SENT_SUPPORT_ASK_REARM_1,"I NEED AMMO AT POSITION %1","POTŘEBUJEME MUNICI, POZICE %1","BENÖTIGE MUNITION! POSITION %1","POTRZEBUJĘ AMUNICJI NA POZYCJI %1","%1, требуются боеприпасы.","BESOIN DE MUNITIONS SUR POSITION %1","NECESITO MUNICIÓN EN POSICIÓN %1","MI SERVONO MUNIZIONI IN POSIZIONE %1"
STR_SENT_SUPPORT_CONFIRM_1,"%1, SUPPORTING. POSITION %2","%1, JEDEM K VÁM. POZICE %2","%1, UNTERSTÜTZE! POSITION %2","%1, WSPIERA. POZYCJA %2","%1, поддержка. Позиция: %2","%1, EN SOUTIEN. POSITION %2","% 1, APOYO. POSICIÓN %2","%1, IN SUPPORTO. POSIZIONE %2"
STR_SENT_SUPPORT_READY_1,"POSITION %2, SUPPORTING %1","POZICE %2, PODPORUJI %1","POSITION %2, UNTERSTÜTZE %1","POZYCJA %2, WSPIERA %1","%2, Оказываю поддержку для: %1","POSITION %2, APPUYANT %1","POSICIÓN %2, APOYO %1","POSIZIONE %2, IN SUPPORTO %1"
STR_SENT_SUPPORT_DONE_1,"SUPPORT DONE","PODPORA SPLNĚNA","UNTERSTÜTZUNG GELEISTET","WSPARCIE ZAKOŃCZONE","Поддержка оказана.","SOUTIEN APPORTÉ","APOYO CONFERIDO","SUPPORTO PORTATO"
STR_SENT_HEALTH_CRITICAL_1,"INJURED","DOSTAL JSEM TO","VERWUNDET","RANNY","Ранен.","BLESSÉ","HERIDO","FERITO"
STR_SENT_DAMMAGE_CRITICAL_1,"STATUS RED","JE TO SE MNOU VÁŽNÝ","STATUS ROT","STATUS CZERWONY","Красный статус.","SITUATION ROUGE","ESTADO ROJO","SITUAZIONE CRITICA"
STR_SENT_FUEL_CRITICAL_1,"OUT OF FUEL","DOŠLO MI PALIVO","TREIBSTOFF ALLE","BRAK PALIWA","Кончилось топливо.","À COURT DE CARBURANT","SIN COMBUSTIBLE","CARBURANTE ESAURITO"
STR_SENT_FUEL_LOW_1,"FUEL LOW","DOCHÁZÍ MI PALIVO","TREIBSTOFF KNAPP","MAŁO PALIWA","Мало топлива.","CARBURANT EN BAISSE","BAJO EN COMBUSTIBLE","CARBURANTE IN ESAURIMENTO"
STR_SENT_AMMO_CRITICAL_1,"OUT OF AMMO","DOŠLA MI MUNICE","MUNITION ALLE","BRAK AMUNICJI","Кончились боеприпасы.","À COURT DE MUNITIONS","SIN MUNICIÓN","MUNIZIONI ESAURITE"
STR_SENT_AMMO_LOW_1,"AMMO LOW","DOCHÁZÍ MI MUNICE","MUNITION KNAPP","MAŁO AMUNICJI","Мало боеприпасов.","MUNITIONS EN BAISSE","BAJO EN MUNICIÓN","MUNIZIONI IN ESAURIMENTO"
STR_SENT_REPORT_POSITION_1,"POSITION %2","POZICE %2","POSITION %2","POZYCJA %2","Позиция %2","POSITION %2","POSICIÓN %2","POSIZIONE %2"
STR_SENT_IS_LEADER_1,"TAKING COMMAND","PŘEBÍRÁM VELENÍ","ÜBERNEHME KOMMANDO","OBEJMUJĘ DOWÓDZTWO","Беру командование.","PRISE DE COMMANDEMENT","TOMAR EL MANDO","PRESA DI COMANDO"
STR_SENT_IS_LEADER_2,"THIS IS %1: TAKING COMMAND. I SAY AGAIN. %1 TAKING COMMAND. OUT.","TADY %1: PŘEBÍRÁM VELENÍ. OPAKUJI. %1 PŘEBÍRÁM VELENÍ. KONEC.","HIER SPRICHT %1: ÜBERNEHME KOMMANDO. WIEDERHOLE. %1 ÜBERNEHME KOMMANDO. ENDE.","TU %1: OBEJMUJĘ DOWÓDZTWO. POWTARZAM. %1 OBEJMUJE DOWÓDZTWO. BEZ ODBIORU.","Говорит %1: принимаю командование. Повторяю, говорит %1: принимаю командование.","ICI %1 : JE PRENDS LE COMMANDEMENT. JE RÉPÈTE, : %1 PREND LE COMMANDEMENT. TERMINÉ","AQUÍ %1: TOMANDO EL MANDO. REPITO: %1 TOMA EL MANDO. CORTO.","QUI È %1: STO PRENDENDO IL COMANDO. RIPETO. %1 PRENDE IL COMANDO. CHIUDO."
STR_SENT_COMMAND_COMPLETED_1,"READY","HOTOVO","BEREIT","GOTOWY","Готов","PRÊT","PREPARADO","PRONTO"
STR_SENT_COMMAND_COMPLETED_2,"WAITING","ČEKÁM","WARTEN","CZEKAM","Ожидаю","EN ATTENTE","ESPERANDO","IN ATTESA"
STR_SENT_FIRE_READY_1,"READY TO FIRE","K PALBĚ PŘIPRAVEN","BEREIT ZUM FEUERN","GOTÓW DO STRZAŁU","Готов открыть огонь","PRÊT À TIRER","ESPERANDO PARA DISPARAR","PRONTO A SPARARE"
STR_SENT_FIRE_NEGATIVE_1,"CANNOT FIRE","NEMŮŽU STŘÍLET","KANN NICHT FEUERN","NIE MOGĘ STRZELAĆ","Не могу открыть огонь","TIR IMPOSSIBLE","IMPOSIBLE DISPARAR","NON È POSSIBILE SPARARE"
STR_SENT_COMMAND_FAILED_1,"NEGATIVE","NEGATIVNÍ","NEGATIV","ODMAWIAM","Ответ отрицательный","NÉGATIF","NEGATIVO","NEGATIVO"
STR_SENT_DESTINATION_UNREACHEABLE_1,"CAN'T GET THERE","NEDOSTANU SE TAM","KOMME NICHT HIN","NIE DOTRĘ TAM","Не могу добраться туда","IMPOSSIBLE D'ALLER LÀ-BAS","IMPOSIBLE LLEGAR AHÍ","NON È POSSIBILE ANDARCI"
STR_SENT_ENEMY_DETECTED_1,"%3, %4 %2, at %5 meters","%3, %4 %2 - %5 metrů","%4 %2, %5 Meter auf %3","%3, %4 %2, w odległości %5 metrów","%3, %4 %2, %5 м.","%3, %4 %2, à %5 m","%3, %4 %2, a %5 metros","%3, %4 %2, a %5 metri"
STR_SENT_ENEMY_DETECTED_2,"%3, %2, at %5 meters","%3, %2 - %5 metrů","%2, %5 Meter auf %3","%3, %2, w odległości %5 metrów","%3, %2, %5 м.","%3, %2, à %5 m","%3, %2, a %5 metros","%3, %2, a %5 metri"
STR_SENT_ENEMY_DETECTED_FAR_1,"%3, %4 %2, at %5 meters","%3, %4 %2 - %5 metrů","%4 %2, %5 Meter auf %3","%3, %4 %2, w odległości %5 metrów","%3, %4 %2, %5 м.","%3, %4 %2, à %5 m","%3, %4 %2, a %5 metros","%3, %4 %2, a %5 metri"
STR_SENT_ENEMY_DETECTED_FAR_2,"%3, %2, at %5 meters","%3, %2, - %5 metrů","%4 %2, %5 Meter auf %3","%3, %2, w odległości %5 metrów","%3, %2, %5 м.","%3, %2, à %5 m","%3, %2, a %5 metros","%3, %2, a %5 metri"
STR_SENT_ENEMY_DETECTED_SIMPLE_1,"%3, %2, at %5 meters","%3, %2, - %5 metrů","%2, %5 Meter auf %3","%3, %2, w odległości %5 metrów","%3, %2, %5 м.","%3, %2, à %5 m","%3, %2, a %5 metros","%3, %2, a %5 metri"
STR_SENT_ENEMY_DETECTED_SIMPLE_FAR_1,"%3, %2","%3, %2","%2, %3","%3, %2","%3, %2","%3, %2","%3, %2","%3, %2"
STR_SENT_OBJECT_DESTROYED_1,"I'VE GOT HIM","DOSTAL JSEM HO","ICH HABE IHN","MAM GO","Цель поражена.","JE L'AI EU","LE TENGO","L’HO PRESO"
STR_SENT_OBJECT_DESTROYED_2,"%2 IS HISTORY","%2 TO MÁ ZA SEBOU","%2 IST GESCHICHTE","%2 JEST HISTORIĄ","Уничтожено: %2.","C'EST FINI POUR %2","%2 YA ES HISTORIA","%2 ELIMINATO"
STR_SENT_OBJECT_DESTROYED_UNKNOWN_1,"I'VE GOT HIM","JE PO NĚM","ICH HABE IHN","MAM GO","Цель поражена.","JE L'AI EU","LE TENGO","L’HO PRESO"
STR_SENT_CONTACT_1,"CONTACT","KONTAKT","KONTAKT!","KONTAKT","Есть контакт.","CONTACT","CONTACTO","CONTATTO"
STR_SENT_UNDER_FIRE_1,"UNDER FIRE","JSME POD PALBOU","UNTER BESCHUSS","POD OSTRZAŁEM","ПОД ОБСТРЕЛОМ.","TIRS SUR MOI","EN LÍNEA DE FUEGO","SOTTO IL FUOCO"
STR_SENT_CLEAR_1,"CLEAR","ČISTO","SICHER","CZYSTO","Чисто.","DÉGAGÉ","DESPEJA","SOTTO CONTROLLO"
STR_SENT_REPEAT_COMMAND_1,"REPEAT","OPAKUJTE","WIEDERHOLEN","POWTÓRZ","Повторите.","RÉPÉTEZ","REPITE","RIPETI"
STR_SENT_WHERE_ARE_YOU_1,"WHERE ARE YOU?","KDE SAKRA JSTE?","WO SIND SIE?","GDZIE JESTEŚ?","Где вы?","OÙ ÊTES-VOUS ?","¿DÓNDE ESTÁS?","DOVE SEI?"
STR_SENT_RETURN_TO_FORMATION_1,"%1, RETURN TO FORMATION","%1, VRAŤTE SE DO FORMACE","%1, IN FORMATION ZURÜCKKEHREN","%1, WRACAJ DO SZYKU","%1, вернитесь в строй.","%1, RETOUR EN FORMATION","%1, REGRESA A LA FORMACIÓN","%1, RITORNARE IN FORMAZIONE"
STR_SENT_RETURN_TO_FORMATION_2,"%1, FALL BACK INTO FORMATION","%1, ZAPADNĚTE DO FORMACE","%1, ZURÜCK IN FORMATION BEGEBEN","%1, DOŁĄCZ DO FORMACJI","%1, возвращайтесь в строй.","%1, REPRISE DE FORMATION","%1,  RETROCEDE A LA FORMACIÓN","%1, RITIRARSI IN FORMAZIONE"
STR_SENT_FORM_COLUMN_1,"FORM COLUMN","ZFORMUJTE ZÁSTUP","KOLONNE BILDEN","FORMOWAĆ KOLUMNĘ","Построиться в колонну.","FORM. COLONNE","FORMAR COLUMNA","FORMARE COLONNA"
STR_SENT_FORM_STAGGERED_COLUMN_1,"FORM STAGGERED COLUMN","ZFORMUJTE DVOJSTUP","GESTAFFELTE KOLONNE BILDEN","FORMOWAĆ ROZPROSZONĄ KOLUMNĘ","В колонну в шахматном порядке.","FORM. COLONNE DÉCALÉE","FORMAR COLUMNA ESCALONADA","FORMARE COLONNA FRAMMENTATA"
STR_SENT_FORM_WEDGE_1,"FORM WEDGE","ZFORMUJTE KLÍN","KEIL BILDEN","FORMOWAĆ KLIN","Построиться клином.","FORM. COIN","FORMAR CUÑA","FORMARE CUNEO"
STR_SENT_FORM_ECHOLON_LEFT_1,"FORM ECHELON LEFT","ZFORMUJTE ZÁSTUP VLEVO","STAFFEL LINKS BILDEN","FORMOWAĆ LEWY ESZELON","В строй уступом влево.","FORM. ÉCHELON G","FORMAR ESCALÓN IZQUIERDA","FORMARE SCAGLIONE A SINISTRA"
STR_SENT_FORM_ECHOLON_RIGHT_1,"FORM ECHELON RIGHT","ZFORMUJTE ZÁSTUP VPRAVO","STAFFEL RECHTS BILDEN","FORMOWAĆ PRAWY ESZELON","В строй уступом вправо.","FORM. ÉCHELON D","FORMAR ESCALÓN DERECHA","FORMARE SCAGLIONE A DESTRA"
STR_SENT_FORM_VEE_1,"FORM VEE","ZFORMUJTE VÉČKO","V-FORMATION BILDEN","FORMOWAĆ V","Построиться V-образно.","FORM. V","FORMAR UVE","FORMARE V"
STR_SENT_FORM_LINE_1,"FORM LINE","ZFORMUJTE LINII","REIHE BILDEN","FORMOWAĆ LINIĘ","В шеренгу.","FORM. LIGNE","FORMAR FILA","FORMARE LINEA"
STR_SENT_FORM_COLUMN_COMPACT_1,"FORM COLUMN (COMPACT)","ZFORMUJTE ZÁSTUP (KOMPAKTNÍ)","KOMPAKTE KOLONNE BILDEN","FORMOWAĆ ZWARTĄ KOLUMNĘ","В колонну (компакт.)","FORM. COLONNE (RESSERRÉE)","FORMAR COLUMNA (COMPACTA)","FORMARE COLONNA (COMPATTA)"
STR_SENT_FORM_DELTA_1,"FORM DELTA","ZFORMUJTE DELTU","DELTA BILDEN","FORMOWAĆ DELTĘ","Построиться в треугольник.","FORM. DELTA","FORMAR DELTA","FORMARE DELTA"
STR_SENT_BEHAVIOUR_CARELESS_1,"%1, STAND DOWN","%1, DEJTE SI VORAZ","%1, LOCKER BLEIBEN","%1, ODSUNĄĆ SIĘ","%1, отойдите.","%1, C'EST BON...","%1, RETÍRATE","%1, GIÙ"
STR_SENT_BEHAVIOUR_SAFE_1,"%1, AT EASE!","%1, POHOV!","%1, ENTSPANNEN!","%1, SPOCZNIJ!","%1, вольно!","%1, REPOS !","¡%1, DESCANSA!","%1, RIPOSO!"
STR_SENT_BEHAVIOUR_AWARE_1,"%1, STAY ALERT","%1, DÁVEJTE POZOR","%1, WACHSAM BLEIBEN","%1, BĄDŹCIE CZUJNI","%1, будьте начеку!","%1, ON RESTE EN ÉVEIL","%1, ALERTA","%1, ATTENZIONE"
STR_SENT_BEHAVIOUR_COMBAT_1,"%1, DANGER","%1, NEBEZPEČÍ","%1, GEFAHR","%1, NIEBEZPIECZEŃSTWO","%1, тревога!","%1, DANGER","%1, PELIGRO","%1, PERICOLO"
STR_SENT_BEHAVIOUR_STEALTH_1,"%1, STEALTH","%1, SKRYTĚ","%1, TARNUNG","%1, SKRADANIE","%1, сохраняйте скрытность!","%1, DISCRÉTION","%1, SIGILO","%1, DI NASCOSTO"
STR_SENT_OPEN_FIRE_1,"%1.1, FIRE AT WILL","%1.1, PALTE DLE LIBOSTI","%1.1, FEUER FREI","%1.1 STRZELAĆ BEZ ROZKAZU","%1.1, огонь по усмотрению!","%1.1, FEU À VOLONTÉ","%1.1, FUEGO A DISCRECIÓN","%1.1, FUOCO A VOLONTÀ"
STR_SENT_OPEN_FIRE_2,"%1.1, WEAPONS FREE","%1.1, PALBA POVOLENA","%1.1, WAFFEN FREI!","%1.1 MOŻNA STRZELAĆ","%1.1, оружие к бою!","%1.1, TIR AUTORISÉ","%1.1, TIRO LIBRE","%1.1, AUTORIZZAZIONE A FAR FUOCO"
STR_SENT_OPEN_FIRE_IN_COMBAT_1,"%1.1, GO, GO, GO!","%1.1, JEDU, JEDU, JEDU!","%1.1, LOS, LOS, LOS!","%1.1 NAPRZÓD, NAPRZÓD, NAPRZÓD!","%1.1, пошел, пошел, пошел!","%1.1, GO, GO, GO !","%1.1, ¡ADELANTE!","%1.1, VIA, VIA, VIA!"
STR_SENT_HOLD_FIRE_1,"%1.1, HOLD FIRE","%1.1,NESTŘÍLET","%1.1, FEUERPAUSE","%1.1 WSTRZYMAĆ OGIEŃ","%1.1, прекратите огонь!","%1.1, ON NE TIRE PAS","%1.1, NO DISPARES","%1.1, NON SPARARE"
STR_SENT_HOLD_FIRE_IN_COMBAT_1,"%1.1, CEASE FIRE","%1.1, ZASTAVIT PALBU","%1.1, FEUER EINSTELLEN","%1.1 PRZERWAĆ OGIEŃ","%1.1, отставить огонь!","%1.1, HALTE AU FEU","%1.1, ALTO EL FUEGO","%1.1, CESSARE IL FUOCO"
STR_SENT_HOLD_FIRE_IN_COMBAT_2,"%1.1, DON'T FIRE","%1.1, NESTŘÍLET","%1.1, NICHT FEUERN","%1.1 NIE STRZELAĆ","%1.1, не стрелять!","%1.1, NE TIREZ PAS","%1.1, NO DISPARES","%1.1, NON SPARARE"
STR_SENT_CEASE_FIRE_INSIDE_GROUP_1,"%1.1, CEASE FIRE","%1.1, NESTŘÍLET","%1.1, FEUER EINSTELLEN","%1.1 PRZERWAĆ OGIEŃ","%1.1, отставить огонь!","%1.1, HALTE AU FEU","%1.1, ALTO EL FUEGO","%1.1, CESSARE IL FUOCO"
STR_SENT_CEASE_FIRE_1,"%1 %2.1, CEASE FIRE","%1 %2.1, ZASTAVIT PALBU","%1 %2.1, FEUER EINSTELLEN","%1 %2.1, PRZERWAĆ OGIEŃ","%1 %2.1, отставить огонь!","%1 %2.1, HALTE AU FEU","%1 %2.1, ALTO EL FUEGO","%1 %2.1, CESSARE IL FUOCO"
STR_SENT_LOOSE_FORMATION_1,"%1.1, ENGAGE AT WILL","%1.1, ÚTOČIT DLE LIBOSTI","%1.1, ANGRIFF FREI","%1.1 ATAK BEZ ROZKAZU","%1.1, вступайте в бой по усмотрению!","%1.1, FEU À VOLONTÉ","%1.1, FUEGO A DISCRECIÓN","%1.1, FUOCO A VOLONTÀ"
STR_SENT_KEEP_FORMATION_1,"%1.1, DISENGAGE","%1.1, ZPÁTKY DO FORMACE","%1.1, ZURÜCKZIEHEN","%1.1 WYCOFAĆ SIĘ","%1.1, отступайте!","%1.1, DÉCROCHAGE","%1.1, RETIRADA","%1.1, DISINGAGGIO"
STR_SENT_UNIT_POS_DOWN_1,"%1.1, GO PRONE","%1.1, K ZEMI","%1.1, HINLEGEN","%1.1 PADNIJ","%1.1, ложись!","%1.1, À TERRE","%1.1, CUERPO A TIERRA","%1.1, A TERRA"
STR_SENT_UNIT_POS_DOWN_2,"%1.1, HIT THE DIRT!","%1.1, ZALEHNOUT","%1.1, HINWERFEN!","%1.1 NA GLEBĘ!","%1.1, на землю!","%1.1, AU SOL !","%1.1, ¡AL SUELO!","%1.1, AL SUOLO!"
STR_SENT_UNIT_POS_DOWN_3,"%1.1, GET DOWN","%1.1, K ZEMI","%1.1, AUF DEN BODEN","%1.1 NA ZIEMIĘ","%1.1, спускайтесь!","%1.1, À TERRE !","%1.1, ABAJO","%1.1, A TERRA"
STR_SENT_UNIT_POS_UP_1,"%1.1, STAND UP","%1.1, VZTYK","%1.1, AUFSTEHEN","%1.1 WSTAĆ","%1.1, подъем!","%1.1, DEBOUT","%1.1, ARRIBA","%1.1, RIALZARSI"
STR_SENT_UNIT_POS_AUTO_1,"%1.1, STAY LOW","%1.1, DRŽET SE PŘI ZEMI","%1.1, DUCKEN","%1.1 GŁOWY NISKO","%1.1, пригнитесь!","%1.1, RESTEZ BAS","%1.1, ABAJO","%1.1, STARE BASSI"
STR_SENT_UNIT_POS_CROUCHED_1,"%1.1, STAY CROUCHED","%1.1, ZŮSTAT PŘIKRČENÝ","%1.1, GEDUCKT BLEIBEN","%1.1 TRZYMAĆ SIĘ NISKO","%1.1, присесть!","%1.1, RESTEZ ACCROUPI","%1.1, AGÁCHATE","%1.1, RIMANERE BASSI"
STR_SENT_FORM_POS_ADVANCE_1,"%1.1, ADVANCE","%1.1, POSTOUPIT","%1.1, VORRÜCKEN","%1.1 NAPRZÓD","%1.1, выдвигайтесь!","%1.1, EN AVANT","%1.1, AVANCE","%1.1, AVANZARE"
STR_SENT_FORM_POS_STAY_BACK_1,"%1.1, STAY BACK","%1.1, DRŽTE SE ZPÁTKY","%1.1, ZURÜCKBLEIBEN","%1.1 NIE ZBLIŻAĆ SIĘ","%1.1, держитесь в стороне!","%1.1, RESTEZ SUR PLACE","%1.1, NO AVANCES","%1.1, STARE INDIETRO"
STR_SENT_FORM_POS_FLANK_LEFT_1,"%1.1, FLANK LEFT","%1.1, DRŽTE SE VLEVO","%1.1, VON LINKS FLANKIEREN","%1.1 OSKRZYDLIĆ Z LEWEJ","%1.1, уходите левее!","%1.1,CONTOURNEZ À GAUCHE","%1.1, FLANCO IZQUIERDO","%1.1, AFFIANCARE A SINISTRA"
STR_SENT_FORM_POS_FLANK_RIGHT_1,"%1.1, FLANK RIGHT","%1.1, DRŽTE SE VPRAVO","%1.1, VON RECHTS FLANKIEREN","%1.1 OSKRZYDLIĆ Z PRAWEJ","%1.1, уходите правее!","%1.1, CONTOURNEZ À DROITE","%1.1, FLANCO DERECHO","%1.1, AFFIANCARE A DESTRA"
STR_SENT_REPORT_STATUS_1,"%1.1, REPORT STATUS","%1.1, PODEJTE ZPRÁVU","%1.1, STATUS MELDEN","%1.1 RAPORT SYTUACYJNY","%1.1, доложите обстановку!","%1.1, RENDEZ COMPTE","%1.1, INFORME DE ESTADO","%1.1, A RAPPORTO"
STR_SENT_TEAM_1,"%1.1 IS %2","%1.1 JE %2","%1.1 IST %2","%1.1 JEST %2","%1.1 - %2!","%1.1 EST %2","%1.1 ES %2","%1.1 È %2"
STR_SENT_TEAM_2,"%1.1 ARE %2","%1.1 JSOU %2","%1.1 SIND %2","%1.1 SĄ %2","%1.1 - %2!","%1.1 SONT %2","%1.1 SON %2","%1.1 SONO %2"
STR_SENT_WATCH_TGT_1,"%1.1, WATCH THAT %2","%1.1, SLEDOVAT - %2","%1.1, %2 BEOBACHTEN","%1.1 UWAŻAĆ NA TO %2","%1.1, осторожней! %2!","%1.1, ATTENTION : %2","%1.1, VIGILA %2","%1.1, ATTENZIONE: %2"
STR_SENT_WATCH_DIR_1,"%1.1, WATCH %2","%1.1, OTOČIT NA %2","%1.1, %2 BEOBACHTEN","%1.1 UWAGA NA %2","%1.1, внимание! %2!","%1.1, ATTENTION : %2","%1.1, VIGILA %2","%1.1, ATTENZIONE: %2"
STR_SENT_WATCH_POS_1,"%1.1, WATCH %2","%1.1, OTOČIT K %2","%1.1, %2 BEOBACHTEN","%1.1 UWAGA NA %2","%1.1, внимание! %2!","%1.1, ATTENTION, %2","%1.1, VIGILA %2","%1.1, ATTENZIONE: %2"
STR_SENT_WATCH_AROUND_1,"%1.1, SCAN HORIZON","%1.1, SLEDOVAT HORIZONT","%1.1, HORIZONT ABSUCHEN","%1.1 OBSERWOWAĆ HORYZONT","%1.1, осмотрите местность!","%1.1, BALAYEZ L'HORIZON","%1.1, EXAMINA EL HORIZONTE","%1.1, SCRUTARE L’ORIZZONTE"
STR_SENT_NO_TARGET_1,"%1.1, NO TARGET","%1.1, ŽÁDNÝ CÍL","%1.1, KEIN ZIEL","%1.1 BRAK CELU","%1.1, нет целей.","%1.1, PAS DE CIBLE","%1.1, SIN OBJETIVO","%1.1, NESSUN OBIETTIVO"
STR_SENT_TARGET_1,"%1, TARGET THAT %2","%1, ZAMĚŘIT - %2","%1, ZIELE AUF %2","%1, CELOWAĆ W %2","%1, ваша цель - %2!","%1, VISEZ CE(TTE) %2","%1, APUNTA A %2","%1, MIRARE A %2"
STR_SENT_ENGAGE_1,"%1, ENGAGE THAT %2","%1, ÚTOK - %2","%1, ANGRIFF AUF %2","%1, ZAATAKOWAĆ %2","%1, для вас цель - %2!","%1, ENGAGEZ CE(TTE) %2","%1, ATACA A %2","%1, INGAGGIARE %2"
STR_SENT_FIRE_1,"%1, FIRE AT THAT %2","%1, PALTE - %2","%1, AUF %2 FEUERN","%1, STRZELAĆ DO %2","%1, огонь по цели: %2!","%1, FEU SUR CE(TTE) %2","%1, DISPARA A %2","%1, SPARARE A %2"
STR_SENT_ENGAGE_NO_TARGET_1,"%1, ENGAGE","%1, DO ÚTOKU","%1, ANGRIFF","%1, ZAATAKOWAĆ","%1, в бой!","%1, ENGAGEZ","%1, ATACA","%1, INGAGGIARE"
STR_SENT_FIRE_NO_TARGET_1,"%1, FIRE","%1, PAL","%1, FEUERN","%1, OGNIA","%1, огонь!","%1; FEU","%1, DISPARA","%1, FUOCO"
STR_SENT_CMD_DISMISS_1,"%1.1, DISMISS","%1.1, POHOV","%1.1, ENTLASSEN","%1.1 ODMASZEROWAĆ","%1.1, разойтись!","%1.1, ROMPEZ","%1.1, QUEDAS LIBRE","%1.1, ROMPERE LE RIGHE"
STR_SENT_CMD_MOVE_1,"%1.1, MOVE TO %2 %3","%1.1, PŘESUN NA %2 %3","%1.1, ZUM %2 AUF %3 BEWEGEN","%1.1 RUSZAĆ DO %2 %3","%1.1, перемещайтесь в зону: %2%3!","%1.1, REJOIGNEZ %2 %3","%1.1, VE HASTA %2 %3","%1.1, MUOVERSI VERSO %2 %3"
STR_SENT_CMD_MOVE_2,"%1.1, GO TO %2 %3","%1.1, PŘESUN NA %2 %3","%1.1, NACH %2 %3 GEHEN","%1.1 RUSZAĆ DO %2 %3","%1.1, двигайтесь в зону: %2%3!","%1.1, ALLEZ À %2 %3","%1.1, VE A %2 %3","%1.1, ANDARE A %2 %3"
STR_SENT_CMD_MOVE_FAR_1,"%1.1, MOVE TO %2","%1.1, PŘESUN NA %2","%1.1, NACH %2 BEWEGEN","%1.1 RUSZAĆ DO %2","%1.1, отправляйтесь в зону: %2!","%1.1, REJOIGNEZ %2","%1.1, VE HASTA %2","%1.1, MUOVERSI VERSO %2"
STR_SENT_CMD_MOVE_FAR_2,"%1.1, GO TO %2","%1.1, VPŘED NA %2","%1.1, NACH %2 GEHEN","%1.1 RUSZAĆ DO %2","%1.1, передвигайтесь в зону: %2!","%1.1, ALLEZ À %2","%1.1, VE A %2","%1.1, ANDARE A %2"
STR_SENT_CMD_MOVE_TO_1,"%1.1, MOVE TO %2 %3","%1.1, JDĚTE NA %2 %3","%1.1, ZUM %2 AUF %3 BEWEGEN","%1.1 RUSZAĆ DO %2 %3","%1.1, передвигайтесь в зону: %2 %3!","%1.1, REJOIGNEZ %2 %3","%1.1, VE HASTA %2 %3","%1.1, MUOVERSI VERSO %2 %3"
STR_SENT_CMD_MOVE_TO_2,"%1.1, GO TO %2 %3","%1.1, PŘESUN NA %2 %3","%1.1, ZUM %2 AUF %3 GEHEN","%1.1 RUSZAĆ DO %2 %3","%1.1, двигайтесь в зону: %2 %3!","%1.1, ALLEZ À %2 %3","%1.1, VE A %2 %3","%1.1, ANDARE A %2 %3"
STR_SENT_CMD_MOVE_NEAR_1,"%1.1, MOVE TO THAT %2 AT %3","%1.1, VPŘED, SMĚR %2 %3","%1.1, ZUM %2 AUF %3 BEWEGEN","%1.1 RUSZAĆ DO %2  %3","%1.1, двигайтесь в %2 на %3!","%1.1, REJOIGNEZ CE(TTE) %2 À %3","%1.1, VE HASTA %2 EN %3","%1.1, MUOVERSI VERSO %2 A %3"
STR_SENT_CMD_HEAL_1,"%1.1, HEAL AT THAT %2 AT %3","%1.1, OŠETŘI SE - %2 NA POZICI %3","%1.1, BEI %2 AUF %3 HEILEN","%1.1 WYLECZYĆ SIĘ PRZY %2 %3","%1.1, окажите мед. помощь:  %2 в зоне %3!","%1.1, SOIGNEZ CE(TTE) %2 À %3","%1.1, CURA EN %2 EN %3","%1.1, CURARE PRESSO %2 A %3"
STR_SENT_CMD_HEAL_FAR_1,"%1.1, HEAL AT %2","%1.1, OŠETŘIT SE: %2","%1.1, BEI %2 HEILEN","%1.1 WYLECZYĆ SIĘ PRZY %2","%1.1, окажите мед. помощь в зоне %2!","%1.1, SOIGNEZ À %2","%1.1, CURAR EN %2","%1.1, CURARE A %2"
STR_SENT_CMD_HEAL_AT_1,"%1.1, GO TO %2 %3","%1.1, JDĚTE NA POZICI %2 %3","%1.1, ZUM %2 AUF %3 GEHEN","%1.1 RUSZAĆ DO %2 %3","%1.1, двигайтесь в зону: %2 %3!","%1.1, ALLEZ À %2 %3","%1.1, VE A %2 %3","%1.1, ANDARE A %2 %3"
STR_SENT_CMD_REPAIR_1,"%1.1, REPAIR AT %2 %3","%1.1, OPRAVTE SE NA  %2 %3","%1.1, BEI %2 AUF %3 REPARIEREN","%1.1 DOKONAĆ NAPRAW W %2 %3","%1.1, требуется ремонт в зоне: %2 %3!","%1.1, RÉPAREZ À %2 %3","%1.1, REPARA EN %2 %3","%1.1, RIPARARE A %2 %3"
STR_SENT_CMD_REPAIR_FAR_1,"%1.1, REPAIR AT %2","%1.1, OPRAVTE SE NA POZICI %2","%1.1, BEI %2 REPARIEREN","%1.1 DOKONAĆ NAPRAW W %2","%1.1, нужен ремонт: %2!","%1.1, RÉPAREZ À %2","%1.1, REPARA EN %2","%1.1, RIPARARE A %2"
STR_SENT_CMD_REPAIR_AT_1,"%1.1, REPAIR AT THAT %2 AT %3","%1.1, OPRAVTE SE - %2 %3","%1.1, BEI %2 %3 REPARIEREN","%1.1 DOKONAĆ NAPRAW W TYM %2 %3","%1.1, нужен ремонт: %2 %3!","%1.1, RÉPAREZ CE(TTE) %2 À %3","%1.1, REPARA EN %2 EN %3","%1.1, RIPARARE PRESSO %2 A %3"
STR_SENT_CMD_REFUEL_1,"%1.1, REFUEL AT %2 %3","%1.1, DOTANKUJTE NA %2 %3","%1.1, BEI %2 %3 AUFTANKEN","%1.1 UZUPEŁNIĆ PALIWO W %2 %3","%1.1, требуется дозаправка в зоне: %2 %3!","%1.1, RAVITAILLEZ À %2 %3","%1.1, REPOSTA EN %2 %3","%1.1, RIFORNIRE A %2 %3"
STR_SENT_CMD_REFUEL_FAR_1,"%1.1, REFUEL AT %2","%1.1, DOTANKUJTE NA %2","%1.1, BEI %2 AUFTANKEN","%1.1 UZUPEŁNIĆ PALIWO W %2","%1.1, нужна дозаправка: %2!","%1.1, RAVITAILLEZ À %2","%1.1, REPARA EN %2","%1.1, RIFORNIRE A %2"
STR_SENT_CMD_REFUEL_AT_1,"%1.1, REFUEL AT THAT %2 AT %3","%1.1, DOTANKUJTE - %2 %3","%1.1, BEI %2 %3 AUFTANKEN","%1.1 UZUPEŁNIĆ PALIWO W %2 %3","%1.1, нужна дозаправка: %2 %3!","%1.1, RAVITAILLEZ CE(TTE) À %3","%1.1, REPARA EN %2 EN %3","%1.1, RIFORNIRE PRESSO %2 A %3"
STR_SENT_CMD_REARM_1,"%1.1, REARM AT %2 %3","%1.1, DOPLNIT MUNICI - %2 NA %3","%1.1, BEI %2 %3 NEU BEWAFFNEN","%1.1 UZUPEŁNIĆ AMUNICJĘ W %2 %3","%1.1, требуются боеприпасы в зоне: %2 %3!","%1.1, RÉARMEZ À %2 %3","%1.1, REARMA EN %2 %3","%1.1, RIARMARE A %2 %3"
STR_SENT_CMD_REARM_FAR_1,"%1.1, REARM AT %2","%1.1, DOPLNIT MUNICI NA %2","%1.1, BEI %2 NEU BEWAFFNEN","%1.1 UZUPEŁNIĆ AMUNICJĘ W %2","%1.1, нужны боеприпасы: %2!","%1.1, RÉARMEZ À %2","%1.1, REARMA EN %2","%1.1, RIARMARE A %2"
STR_SENT_CMD_REARM_AT_1,"%1.1, REARM AT %3","%1.1, DOPLNIT MUNICI NA %3","%1.1, BEI %3 NEU BEWAFFNEN","%1.1 UZUPEŁNIĆ AMUNICJĘ W %3","%1.1, нужны боеприпасы в зоне %3!","%1.1, RÉARMEZ À %3","%1.1, REPARA EN %3","%1.1, RIARMARE A %3"
STR_SENT_CMD_SUPPORT_1,"%1.1, SUPPORT AT %2 %3","%1.1, PODPORA: %2 %3","%1.1, BEI %2 %3 UNTERSTÜTZEN","%1.1 WSPARCIE PRZY %2 %3","%1.1, требуется поддержка в зоне: %2 %3!","%1.1, SOUTENEZ À %2 %3","%1.1, APOYO EN %2 %3","%1.1, OFFRIRE SUPPORTO A %2 %3"
STR_SENT_CMD_SUPPORT_FAR_1,"%1.1, SUPPORT AT %2","%1.1, POSKYTNOUT PODPORU NA: %2","%1.1, BEI %2 UNTERSTÜTZEN","%1.1 WSPARCIE PRZY %2","%1.1, нужна поддержка: %2!","%1.1, SOUTENEZ À %2","%1.1, APOYO EN %2","%1.1, OFFRIRE SUPPORTO A %2"
STR_SENT_CMD_SUPPORT_AT_1,"%1.1, SUPPORT THAT %2 AT %3","%1.1, POSKYTNOUT PODPORU: %2 NA %3","%1.1, %2 BEI %3 UNTERSTÜTZEN","%1.1 WESPRZEĆ %2 %3","%1.1, нужна поддержка: %2 %3!","%1.1, SOUTENEZ CE(TTE) %2 À %3","%1.1, APOYO EN %2 EN %3","%1.1, OFFRIRE SUPPORTO A %2 A %3"
STR_SENT_CMD_TAKE_WEAPON_1,"%1.1, TAKE THAT %2 FROM %3 %4","%1.1, VEZMĚTE %2 OD - %3","%1.1, %2 AUF %3 %4 NEHMEN","%1.1 WZIĄĆ %2 OD %3 %4","%1.1, заберите %2 из %3%4!","%1.1, PRENEZ CE(TTE) %2 SUR %3 %4","%1.1, COGE %2 DE %3 %4","%1.1, PRENDERE %2 DA %3 %4"
STR_SENT_CMD_TAKE_WEAPON_FAR_1,"%1.1, TAKE THAT %2 FROM %3","%1.1, VEZMĚTE SI %2 OD - %3","%1.1, %2 AUF %3 NEHMEN","%1.1 WZIĄĆ %2 OD %3","%1.1, заберите %2 из %3!","%1.1, PRENEZ CE(TTE) %2 SUR %3","%1.1, COGE %2 DE %3","%1.1, PRENDERE %2 DA %3"
STR_SENT_CMD_TAKE_WEAPON_AT_1,"%1.1, TAKE THAT %2 FROM THAT %3 AT %4","%1.1, VEZMĚTE %2 OD - %3, NA POZICI %4","%1.1, %2 AUS DEM %3 AUF %4 NEHMEN","%1.1 WZIĄĆ  %2 OD  %3 %4","%1.1, заберите %2, %3 из %4!","%1.1, PRENEZ CE(TTE) %2 SUR CE(TTE) %3 À %4","%1.1, COGE %2 DE %3 EN %4","%1.1, PRENDERE %2 DA %3 A %4"
STR_SENT_CMD_TAKE_MAGAZINE_1,"%1.1, TAKE THAT MAGAZINE FROM %2 %3","%1.1, VEZMĚTE ZÁSOBNÍK OD - %2 %3","%1.1, MAGAZIN NEHMEN VON %2 %3","%1.1 WZIĄĆ MAGAZYNEK OD %2 %3","%1.1, заберите боеприпасы. %2 %3!","%1.1, PRENEZ CE CHARGEUR SUR %2 %3","%1.1, COGE ESE CARGADOR DE %2 %3","%1.1, PRENDERE QUEL CARICATORE DA %2 %3"
STR_SENT_CMD_TAKE_MAGAZINE_FAR_1,"%1.1, TAKE THAT MAGAZINE FROM %2","%1.1, DOPLŇTE MUNICI NA %2","%1.1, MAGAZIN NEHMEN VON %2","%1.1 WZIĄĆ MAGAZYNEK OD %2","%1.1, заберите боеприпасы. %2!","%1.1, PRENEZ CE CHARGEUR SUR %2","%1.1, COGE ESE CARGADOR DE %2","%1.1, PRENDERE QUEL CARICATORE DA %2"
STR_SENT_CMD_TAKE_MAGAZINE_AT_1,"%1.1, TAKE THAT MAGAZINE FROM THAT %2 AT %3","%1.1, DOPLŇTE MUNICI OD - %2 NA POZICI %3","%1.1, DIESES MAGAZIN AUS %2 AUF %3 NEHMEN.","%1.1 WZIĄĆ MAGAZYNEK OD %2 %3","%1.1, заберите боеприпасы. %2 в зоне %3!","%1.1, PRENEZ CE CHARGEUR SUR CE(TTE) %2 À %3","%1.1, COGE ESE CARGADOR DE %2 EN %3","%1.1, PRENDERE QUEL CARICATORE DA %2 A %3"
STR_SENT_CMD_DROP_WEAPON_1,"%1.1, DROP THAT %2","%1.1, ODLOŽIT %2","%1.1, LASSEN SIE DAS %2 FALLEN","%1.1 WYRZUCIĆ %2","%1.1, оставьте %2!","%1.1, LÂCHEZ CE(TTE) %2","%1.1, SUELTA %2","%1.1, LASCIARE %2"
STR_SENT_CMD_DROP_MAGAZINE_1,"%1.1, DROP THAT MAGAZINE","%1.1, ODLOŽTE TEN ZÁSOBNÍK","%1.1, LASSEN SIE DAS MAGAZIN FALLEN","%1.1 WYRZUCIĆ MAGAZYNEK","%1.1, оставьте магазин с боеприпасами.","%1.1, LÂCHEZ CE CHARGEUR","%1.1, SUELTA ESE CARGADOR","%1.1, LASCIARE QUEL CARICATORE"
STR_SENT_CMD_TAKE_FLAG_1,"%1.1, TAKE THE FLAG AT %2 %3","%1.1, ZABERTE VLAJKU NA POZICI %2 %3","%1.1, FLAGGE BEI %2 AUF %3 NEHMEN","%1.1 ZABRAĆ FLAGĘ Z %2 %3","%1.1, возьмите флаг в зоне %2 %3!","%1.1, PRENEZ LE DRAPEAU À %2 %3","%1.1, COGE LA BANDERA EN %2 %3","%1.1, PRENDERE LA BANDIERA A %2 %3"
STR_SENT_CMD_TAKE_FLAG_FAR_1,"%1.1, TAKE THE FLAG AT %2","%1.1, ZABERTE VLAJKU NA POZICI %2","%1.1, FLAGGE BEI %2 NEHMEN","%1.1 ZABRAĆ FLAGĘ Z %2","%1.1, возьмите флаг в зоне %2!","%1.1, PRENEZ LE DRAPEAU À %2","%1.1, COGE LA BANDERA EN %2","%1.1, PRENDERE LA BANDIERA A %2"
STR_SENT_CMD_TAKE_FLAG_AT_1,"%1.1, TAKE THE FLAG AT THAT %2 AT %3","%1.1, ZABERTE VLAJKU OD - %2 NA POZICI %3","%1.1, FLAGGE BEI %2 AUF %3 NEHMEN","%1.1 ZABRAĆ FLAGĘ Z %2 %3","%1.1, возьмите флаг. %2 в зоне %3!","%1.1, PRENEZ LE DRAPEAU À CE(TTE) %2 À %3","%1.1, COGE LA BANDERA EN %2 EN %3","%1.1, PRENDERE LA BANDIERA PRESSO %2 A %3"
STR_SENT_CMD_RETURN_FLAG_1,"%1.1, RETURN THE FLAG AT %2 %3","VRAŤTE VLAJKU NA POZICI %2 %3","%1.1, FLAGGE BEI %2 %3 ZURÜCKBRINGEN","ZANIEŚĆ FLAGĘ DO %2 %3","Верните флаг в зону %2 %3!","%1.1, RAPPORTEZ LE DRAPEAU À %2 %3","DEVUELVE LA BANDERA EN %2 %3","RIPORTARE LA BANDIERA A %2 %3"
STR_SENT_CMD_RETURN_FLAG_FAR_1,"%1.1, RETURN THE FLAG AT %2","%1.1, VRAŤTE VLAJKU NA POZICI %2","%1.1, FLAGGE BEI %2 ZURÜCKBRINGEN","%1.1 ZANIEŚĆ FLAGĘ DO %2","%1.1, верните флаг в зону %2!","%1.1, RAPPORTEZ LE DRAPEAU À %2","%1.1, DEVUELVE LA BANDERA EN %2","%1.1, RIPORTARE LA BANDIERA A %2"
STR_SENT_CMD_RETURN_FLAG_AT_1,"%1.1, RETURN THE FLAG AT THAT %2 AT %3","%1.1, VRAŤTE VLAJKU NA %2 U %3","%1.1, FLAGGE BEI %2 AUF %3 ZURÜCKBRINGEN","%1.1 ZANIEŚĆ FLAGĘ DO %2 %3","%1.1, верните флаг. %2  в зоне %3!","%1.1, RAPPORTEZ LE DRAPEAU À CE(TTE) À %3","%1.1, DEVUELVE LA BANDERA EN ESE %2 EN %3","%1.1, RIPORTARE LA BANDIERA PRESSO %2 A %3"
STR_SENT_CMD_EJECT_1,"%1.1, EJECT!","%1.1, VYSKOČIT!","%1.1, RAUS DA!","%1.1 KATAPULTUJ SIĘ!","%1.1, катапультируйтесь!","%1.1, ÉJECTION !","%1.1, ¡EXTRACCIÓN!","%1.1, EIEZIONE!"
STR_SENT_CMD_PLACE_CHARGE_1,"%1.1, PLACE A CHARGE","%1.1, UMÍSTIT NÁLOŽ","%1.1, SPRENGSATZ PLATZIEREN","%1.1 PODŁOŻYĆ ŁADUNEK","%1.1, установите заряд!","%1.1, PLACEZ UNE CHARGE","%1.1, COLOCA UNA CARGA","%1.1, PIAZZARE UNA CARICA"
STR_SENT_CMD_DETONATE_1,"%1.1, DETONATE THE CHARGES","%1.1, ODPÁLIT NÁLOŽ","%1.1, SPRENGSATZ AUSLÖSEN","%1.1 ZDETONOWAĆ ŁADUNKI","%1.1, активируйте заряд!","%1.1, FAITES EXPLOSER LES CHARGES","%1.1, DETONA LAS CARGAS","%1.1, DETONARE LE CARICHE"
STR_SENT_CMD_ACTIVATE_TIMER_1,"%1.1, ACTIVATE THE TIMER","%1.1, AKTIVOVAT ČASOVACÍ SPÍNAČ","%1.1, ZEITZÜNDER AKTIVIEREN","%1.1 URUCHOMIĆ ZAPALNIK","%1.1, активируйте таймер!","%1.1, ACTIVEZ LA MINUTERIE","%1.1, ACTIVA EL TEMPORIZADOR","%1.1, ATTIVARE IL TIMER"
STR_SENT_CMD_DEACTIVATE_BOMB_1,"%1.1, DEACTIVATE THAT BOMB","%1.1, DEAKTIVOVAT BOMBU","%1.1, BOMBE ENTSCHÄRFEN","%1.1 ROZBROIĆ BOMBĘ","%1.1, обезвредьте бомбу!","%1.1, DÉSAMORCEZ CETTE BOMBE","%1.1, DESACTIVA ESA BOMBA","%1.1, DISATTIVARE QUELLA BOMBA"
STR_SENT_CMD_DEACTIVATE_MINE_1,"%1.1, DEACTIVATE THAT MINE","%1.1, DEAKTIVOVAT MINU","%1.1, MINE ENTSCHÄRFEN","%1.1 ROZBROIĆ TĘ MINĘ","%1.1, обезвредьте мину!","%1.1, DÉSAMORCEZ CETTE MINE","%1.1, DESACTIVA ESA MINA","%1.1, DISATTIVARE QUELLA MINA"
STR_SENT_CMD_TAKE_MINE_1,"%1.1, PICK UP THAT MINE","%1.1, ZDVIHNOUT MINU","%1.1, MINE AUFHEBEN","%1.1 ZABRAĆ TĘ MINĘ","%1.1, поднимите мину!","%1.1, RAMASSEZ CETTE MINE","%1.1, RECOGE ESA MINA","%1.1, PRENDERE QUELLA MINA"
STR_SENT_CMD_LIGHT_FIRE_1,"%1.1, LIGHT THAT FIRE AT %2 %3","%1.1, ZAPÁLIT OHEŇ NA POZICI %2 %3","%1.1, DAS FEUER BEI %2 %3 ENTZÜNDEN","%1.1 ROZPALIĆ OGIEŃ PRZY %2 %3","%1.1, зажгите огонь в зоне %2 %3!","%1.1, ALLUMEZ CET INCENDIE À %2 %3","%1.1, ENCIENDE ESE FUEGO EN %2 %3","%1.1, ACCENDERE QUEL FUOCO A %2 %3"
STR_SENT_CMD_LIGHT_FIRE_FAR_1,"%1.1, LIGHT THAT FIRE AT %2","%1.1, ZAPÁLIT OHEŇ NA POZICI %2","%1.1, DAS FEUER BEI %2 ENTZÜNDEN","%1.1 ROZPALIĆ OGIEŃ PRZY %2","%1.1, зажгите огонь в зоне %2!","%1.1, ALLUMEZ CET INCENDIE À %2","%1.1, ENCIENDE ESE FUEGO EN %2","%1.1, ACCENDERE QUEL FUOCO A %2"
STR_SENT_CMD_LIGHT_FIRE_AT_1,"%1.1, LIGHT THAT FIRE AT %3","%1.1, ZAPÁLIT OHEŇ NA POZICI %3","%1.1, DAS FEUER AUF %3 ENTZÜNDEN","%1.1 ROZPALIĆ OGIEŃ PRZY %3","%1.1, зажгите огонь в зоне %3!","%1.1, ALLUMEZ CET INCENDIE À %3","%1.1, ENCIENDE ESE FUEGO EN %3","%1.1, ACCENDERE QUEL FUOCO A %3"
STR_SENT_CMD_PUT_OUT_FIRE_1,"%1.1, PUT OUT THAT FIRE AT %2 %3","%1.1, UHASIT OHEŇ NA POZICI %2 %3","%1.1, DAS FEUER BEI %2 %3 LÖSCHEN","%1.1 ZGASIĆ OGIEŃ PRZY %2 %3","%1.1, погасите огонь в зоне %2 %3!","%1.1, ÉTEIGNEZ CET INCENDIE À %2 %3","%1.1, APAGA ESE FUEGO EN %2 %3","%1.1, ESTINGUERE QUEL FUOCO A %2 %3"
STR_SENT_CMD_PUT_OUT_FIRE_FAR_1,"%1.1, PUT OUT THAT FIRE AT %2","%1.1, UHASIT OHEŇ NA POZICI %2","%1.1, DAS FEUER BEI %2 LÖSCHEN","%1.1 ZGASIĆ OGIEŃ PRZY %2","%1.1, погасите огонь в зоне %2!","%1.1, ÉTEIGNEZ CET INCENDIE À %2","%1.1, ENCIENDE ESE FUEGO EN %2","%1.1, ESTINGUERE QUEL FUOCO A %2"
STR_SENT_CMD_PUT_OUT_FIRE_AT_1,"%1.1, PUT OUT THAT FIRE AT %3","%1.1, UHASIT OHEŇ NA POZICI %3","%1.1, DAS FEUER AUF %3 LÖSCHEN","%1.1 ZGASIĆ OGIEŃ PRZY %3","%1.1, погасите огонь в зоне %3!","%1.1, ÉTEIGNEZ CET INCENDIE À %3","%1.1, ENCIENDE ESE FUEGO EN %3","%1.1, ESTINGUERE QUEL FUOCO A %3"
STR_SENT_CMD_OPEN_DOOR_1,"%1.1, OPEN THAT DOOR AT %2 %3","%1.1, OTEVŘÍT DVEŘE U - %2 %3","%1.1, DIE TÜR BEI %2 %3 ÖFFNEN","%1.1 OTWORZYĆ DRZWI W %2 %3","%1.1, откройте дверь в зоне %2 %3!","%1.1, OUVREZ CETTE PORTE À %2 %3","%1.1, ABRE ESA PUERTA EN %2 %3","%1.1, APRIRE QUELLA PORTA A %2"
STR_SENT_CMD_OPEN_DOOR_FAR_1,"%1.1, OPEN THAT DOOR AT %2","%1.1, OTEVŘÍT DVEŘE U - %2","%1.1, DIE TÜR BEI %2 ÖFFNEN","%1.1 OTWORZYĆ DRZWI W %2","%1.1, откройте дверь в зоне %2!","%1.1, OUVREZ CETTE PORTE À %2","%1.1, ABRE ESA PUERTA EN %2","%1.1, APRIRE QUELLA PORTA A %2"
STR_SENT_CMD_OPEN_DOOR_AT_1,"%1.1, OPEN THAT DOOR AT THAT %2 AT %3","%1.1, OTEVŘÍT DVEŘE U - %2 NA POZICI %3","%1.1, DIE TÜR BEI %2 AUF %3 ÖFFNEN","%1.1 OTWORZYĆ DRZWI W TYM %2 %3","%1.1, откройте дверь. %2 в зоне %3!","%1.1, OUVREZ LA PORTE DE CE(TTE) %2 À %3","%1.1, ABRE ESA PUERTA EN %2 EN %3","%1.1, APRIRE LA PORTA DI %2 A %3"
STR_SENT_CMD_CLOSE_DOOR_1,"%1.1, CLOSE THAT DOOR AT %2 %3","%1.1, ZAVŘÍT DVEŘE U - %2 %3","%1.1, DIE TÜR BEI %2 %3 SCHLIESSEN","%1.1 ZAMKNĄĆ DRZWI W %2 %3","%1.1, закройте дверь в зоне %2 %3!","%1.1, FERMEZ CETTE PORTE À %2 %3","%1.1, CIERRA ESA PUERTA EN %2 %3","%1.1, CHIUDERE QUELLA PORTA A %2 %3"
STR_SENT_CMD_CLOSE_DOOR_FAR_1,"%1.1, CLOSE THAT DOOR AT %2","%1.1, ZAVŘÍT DVEŘE U - %2","%1.1, DIE TÜR BEI %2 SCHLIESSEN","%1.1 ZAMKNĄĆ DRZWI W %2","%1.1, закройте дверь в зоне %2!","%1.1, FERMEZ CETTE PORTE À %2","%1.1, CIERRA ESA PUERTA EN %2","%1.1, CHIUDERE QUELLA PORTA A %2"
STR_SENT_CMD_CLOSE_DOOR_AT_1,"%1.1, CLOSE THAT DOOR AT THAT %2 AT %3","%1.1, ZAVŘÍT DVEŘE U - %2 NA POZICI %3","%1.1, DIE TÜR BEI %2 AUF %3 SCHLIESSEN","%1.1 ZAMKNĄĆ DRZWI W TYM %2 %3","%1.1, закройте дверь. %2 в зоне %3!","%1.1, FERMEZ LA PORTE DE CE(TTE) %2 À %3","%1.1, CIERRA ESA PUERTA EN %2 EN %3","%1.1, CHIUDERE LA PORTA DI %2 A %3"
STR_SENT_CMD_ACTION_1,"%1.1, %2 AT %3 %4","%1.1, %2 NA %3 %4","%1.1, %2 BEI %3 %4","%1.1 %2 %3 %4","%1.1, %2 в зоне %3 %4!","%1.1, %2 À %3 %4","%1.1, %2 EN %3 %4","%1.1, %2 A %3 %4"
STR_SENT_CMD_ACTION_FAR_1,"%1.1, %2 AT %3","%1.1, %2 NA %3","%1.1, %2 BEI %3","%1.1 %2 %3","%1.1, %2 в зоне %3!","%1.1, %2 À %3","%1.1, %2 EN %3","%1.1, %2 A %3"
STR_SENT_CMD_ACTION_NEAR_1,"%1.1, %2","%1.1, %2","%1.1, %2","%1.1 %2","%1.1, %2!","%1.1, %2","%1.1, %2","%1.1, %2"
STR_SENT_CMD_ACTION_AT_1,"%1.1, %2 AT THAT %3 AT %4","%1.1, %2 U - %3 NA POZICI %4","%1.1, %2 BEI %3 AUF %4","%1.1 %2 PRZY TYM %3 KOŁO %4","%1.1, %2. %3 в зоне %4!","%1.1, %2 À CE(TTE) %2 À %4","%1.1, %2 EN %3 EN %4","%1.1, %2 PRESSO %3 A %4"
STR_SENT_CMD_FOLLOW_ME_1,"%1.1, RETURN TO FORMATION","%1.1, ZPÁTKY DO FORMACE","%1.1, IN FORMATION ZURÜCKKEHREN","%1.1 WRACAĆ DO SZYKU","%1.1, вернитесь в строй!","%1.1, RETOUR EN FORMATION","%1.1, REGRESA A LA FORMACIÓN","%1.1, RITORNARE IN FORMAZIONE"
STR_SENT_CMD_FOLLOW_ME_2,"%1.1, FALL BACK INTO FORMATION","%1.1, ZPÁTKY DO FORMACE","%1.1, ZURÜCK IN FORMATION BEGEBEN","%1.1 DOŁĄCZYĆ DO SZYKU","%1.1, возвращайтесь в строй!","%1.1, REPRISE DE FORMATION","%1.1, RETROCEDE A LA FORMACIÓN","%1.1, RITIRARSI IN FORMAZIONE"
STR_SENT_CMD_FOLLOW_1,"%1.1, FOLLOW %2.1","%1.1, NÁSLEDUJTE %2.1","%1.1, %2.1 FOLGEN","%1.1 PODĄŻAĆ ZA %2.1","%1.1, проследуйте за: %2.1!","%1.1, SUIVEZ %2.1","%1.1, SIGUE A %2.1","%1.1, SEGUIRE %2.1"
STR_SENT_CMD_ATTACK_1,"%1.1, ATTACK THAT %2","%1.1, ÚTOČIT NA %2","%1.1, %2 ANGREIFEN","%1.1 ZAATAKOWAĆ %2","%1.1, атакуйте цель: %2!","%1.1, ATTAQUEZ CE(TTE) %2","%1.1, ATACA A %2","%1.1, ATTACCARE %2"
STR_SENT_CMD_ATTACK_NO_TARGET_1,"%1.1, ATTACK","%1.1, ÚTOK","%1.1, ANGREIFEN","%1.1 DO ATAKU","%1.1, в атаку!","%1.1, ATTAQUEZ","%1.1, ATACA","%1.1, ATTACCARE"
STR_SENT_CMD_FIRE_1,"%1.1, FIRE AT THAT %2","%1.1, PALTE NA CÍL: %2","%1.1, AUF %2 FEUERN","%1.1 OSTRZELAĆ %2","%1.1, огонь по цели: %2!","%1.1, FEU SUR CE(TTE) %2","%1.1, DISPARA CONTRA %2","%1.1, SPARARE A %2"
STR_SENT_CMD_GETIN_1,"%1.1, GET IN THAT %2","%1.1, NÁSTUP - %2","%1.1, IN %2 EINSTEIGEN","%1.1 WSIADAĆ DO %2","%1.1, забирайтесь в: %2!","%1.1, GRIMPEZ DANS CE(TTE) %2","%1.1, SUBE A %2","%1.1, SALIRE SU %2"
STR_SENT_CMD_GETIN_COMMANDER_1,"%1.1, COMMANDER, GET IN THAT %2","%1.1, POZICE VELITELE, NÁSTUP - %2","%1.1, KOMMANDANT, IN %2 EINSTEIGEN","%1.1 DOWÓDCO, WSIADAĆ DO %2","%1.1, командир, забирайтесь в %2!","%1.1, CHEF DE BORD, GRIMPEZ DANS CE(TTE) %2","%1.1, OFICIAL, SUBE A %2","%1.1, COMANDANTE, SALGA SU %2"
STR_SENT_CMD_GETIN_DRIVER_1,"%1.1, DRIVER, GET IN THAT %2","%1.1, POZICE ŘIDIČE, NÁSTUP - %2","%1.1, FAHRER, IN %2 EINSTEIGEN","%1.1 KIEROWCO, WSIADAĆ DO %2","%1.1, водитель, забирайтесь в: %2!","%1.1, CONDUCTEUR, GRIMPEZ DANS CE(TTE) %2","%1.1, CONDUCTOR, SUBE A %2","%1.1, GUIDATORE, SALI SU %2"
STR_SENT_CMD_GETIN_PILOT_1,"%1.1, PILOT, GET IN THAT %2","%1.1, POZICE PILOTA, NÁSTUP - %2","%1.1, PILOT, IN %2 EINSTEIGEN","%1.1 PILOT, WSIADAĆ DO %2","%1.1, пилот, забирайтесь в: %2!","%1.1, PILOTE, GRIMPEZ DANS CE(TTE) %2","%1.1, PILOTO, SUBE A %2","%1.1, PILOTA, SALI SU %2"
STR_SENT_CMD_GETIN_GUNNER_1,"%1.1, GUNNER, GET IN THAT %2","%1.1, POZICE STŘELCE, NÁSTUP - %2","%1.1, SCHÜTZE, IN %2 EINSTEIGEN","%1.1 STRZELEC, WSIADAĆ DO %2","%1.1, стрелок, забирайтесь в: %2!","%1.1, TIREUR, GRIMPEZ DANS CE(TTE) %2","%1.1, ARTILLERO, SUBE A %2","%1.1, ARTIGLIERE, SALI SU %2"
STR_SENT_CMD_GETIN_CARGO_1,"%1.1, BOARD THAT %2","%1.1, NASTOUPIT - %2","%1.1, IN %2 EINSTEIGEN","%1.1 WEJŚĆ DO %2","%1.1, забирайтесь в: %2!","%1.1, EMBARQUEZ DANS CE(TTE) %2","%1.1, EMBARCA EN %2","%1.1, SALIRE SU %2"
STR_SENT_CMD_GETOUT_1,"%1.1, DISEMBARK","%1.1, VYSTOUPIT","%1.1, VON BORD","%1.1 WYSIADAĆ","%1.1, выгружаемся!","%1.1, DÉBARQUEZ","%1.1, DESEMBARCA","%1.1, SCENDERE"
STR_SENT_CMD_STOP_1,"%1.1, HALT","%1.1, STÁT","%1.1, HALT","%1.1 STAĆ","%1.1, стоять!","%1.1, HALTE","%1.1, ALTO","%1.1, ALT"
STR_SENT_CMD_EXPECT_1,"%1.1, WAIT FOR ME","%1.1, POČKEJTE NA MĚ","%1.1, WARTET AUF MICH","%1.1 ZACZEKAĆ NA MNIE","%1.1, ждите меня!","%1.1, ATTENDEZ-MOI","%1.1, ESPÉRAME","%1.1, ASPETTARMI"
STR_SENT_CMD_HIDE_1,"%1.1, TAKE COVER","%1.1, DO ÚKRYTU","%1.1, DECKUNG!","%1.1 KRYĆ SIĘ","%1.1, прикройте!","%1.1, À COUVERT","%1.1, A CUBIERTO","%1.1, AL RIPARO"
STR_SENT_NOTIFY_ATTACK_1,"ENGAGING","ÚTOČÍM","GREIFEN AN","ATAKUJEMY","Вступаю в бой","ENGAGEMENT","ATACANDO","INGAGGIO EFFETTUATO"
STR_SENT_NOTIFY_SUPPORT_1,"SUPPORTING","PODPORUJI","UNTERSTÜTZEN","WSPIERAMY","Оказываю поддержку","SOUTIEN","APOYANDO","IN SUPPORTO"
STR_SENT_CONFIRM_PRIVATE_1,"ROGER","ROZUMÍM","VERSTANDEN","ZROZUMIAŁEM","Слушаюсь","REÇU","RECIBIDO","RICEVUTO"
STR_SENT_CONFIRM_MOVE_1,"ROGER","PROVEDU","VERSTANDEN","ZROZUMIAŁEM","Слушаюсь","REÇU,","RECIBIDO","RICEVUTO"
STR_SENT_CONFIRM_MOVE_2,"MOVING ON","PŘESOUVÁM SE","WEITER","W DRODZE","Выдвигаюсь","EN MOUVEMENT","AVANZANDO","IN MOVIMENTO"
STR_SENT_CONFIRM_MOVE_3,"ON THE WAY","ROZKAZ","AUF DEM WEG","IDZIEMY","Уже в пути","EN ROUTE","EN CAMINO","IN CAMMINO"
STR_SENT_CONFIRM_ATTACK_1,"I'M ON HIM","JDU PO NĚM","BIN IHM AUF DER SPUR","ZAJMĘ SIĘ NIM","Он – мой","JE M'OCCUPE DE LUI","ESTOY SOBRE ÉL","SONO SU DI LUI"
STR_SENT_CONFIRM_ATTACK_2,"ROGER","PROVEDU","IN ORDNUNG","ZROZUMIAŁEM","Вас понял","REÇU","RECIBIDO","RICEVUTO"
STR_SENT_CONFIRM_ATTACK_3,"ON THE WAY","JDU NA TO","UNTERWEGS","IDZIEMY","Уже в пути","EN ROUTE","EN CAMINO","IN CAMMINO"
STR_SENT_CONFIRM_OTHER_1,"ROGER","PROVEDU","IN ORDNUNG","ZROZUMIAŁEM","Вас понял","REÇU","RECIBIDO","RICEVUTO"
STR_SENT_VEHICLE_JOIN_1,"MAINTAIN FORMATION","DODRŽUJTE FORMACI","FORMATION BEIBEHALTEN","UTRZYMAĆ SZYK","Поддерживать строй","CONSERVEZ LA FORMATION","MANTENER INFORMACIÓN","MANTENERE FORMAZIONE"
STR_SENT_VEHICLE_MOVE_1,"MOVE TO %1 %2","PŘESUN NA %1 %2","NACH %1 %2 BEWEGEN","RUSZAĆ DO %1 %2","Двигаться в зону: %1 %2!","REJOIGNEZ %1 %2","VE HASTA %1 %2","MUOVERSI VERSO %1 %2"
STR_SENT_VEHICLE_MOVE_2,"GO TO %1 %2","PŘESUN NA %1 %2","NACH %1 %2 GEHEN","RUSZAĆ DO %1 %2","Проследовать в зону: %1 %2!","ALLEZ À %1 %2","VE A %1 %2","ANDARE A %1 %2"
STR_SENT_VEHICLE_FIRE_1,"FIRE AT THAT %1","PAL -  %1","AUF %1 FEUERN","OSTRZELAĆ %1","Огонь по цели: %1 %2!","TIREZ SUR CE(TTE) %1","DISPÁRALE A ESE %1","SPARARE A %1"
STR_SENT_VEHICLE_TARGET_1,"TARGET THAT %1 AT %2","ZAMIŘ NA CÍL %1 NA POZICI %2","ZIEL %1 AUF %2","CELOWAĆ W %1 %2","Ваша цель - %1 в зоне %!","VISEZ CE(TTE) %1 À %2","APUNTA A %1 EN %2","MIRARE %1 A %2"
STR_SENT_VEHICLE_NO_TARGET_1,"NO TARGET","ZRUŠIT MÍŘENÍ","KEIN ZIEL","BRAK CELU","Нет цели","PAS DE CIBLE","SIN OBJETIVO","NESSUN OBIETTIVO"
STR_SENT_VEHICLE_CEASE_FIRE_1,"CEASE FIRE","NESTŘÍLET","FEUER EINSTELLEN","PRZERWAĆ OGIEŃ","Отставить огонь!","HALTE AU FEU","ALTO EL FUEGO","CESSARE IL FUOCO"
STR_SENT_VEHICLE_FORWARD_1,"FORWARD","DOPŘEDU","VORWÄRTS","NAPRZÓD","Вперед","EN AVANT","ADELANTE","IN AVANTI"
STR_SENT_VEHICLE_STOP_1,"HALT","ZASTAVIT","HALT","STAĆ","Стоп","HALTE","PARO","ALT"
STR_SENT_VEHICLE_BACKWARD_1,"REVERSE","COUVAT","RÜCKWÄRTS","DO TYŁU","Задний ход.","EN ARRIÈRE","ATRÁS","INDIETRO"
STR_SENT_VEHICLE_FASTER_1,"FAST","RYCHLE","SCHNELL","SZYBKO","Быстро","VITE","RÁPIDO","VELOCE"
STR_SENT_VEHICLE_SLOWER_1,"SLOW","POMALU","LANGSAM","POWOLI","Медленно","LENTEMENT","LENTO","LENTO"
STR_SENT_VEHICLE_LEFT_1,"LEFT","DOLEVA","LINKS","W LEWO","Налево","À GAUCHE","IZQUIERDA","SINISTRA"
STR_SENT_VEHICLE_RIGHT_1,"RIGHT","DOPRAVA","RECHTS","W PRAWO","Направо","À DROITE","DERECHA","DESTRA"
STR_SENT_VEHICLE_DIRECT_FIRE_1,"FIRE","PAL","FEUER","OGNIA","Огонь","FEU","FUEGO","FUOCO"
STR_SENT_VEHICLE_LOAD_1,"%1","%1","%1","%1","%1","1%","%1","%1"
STR_SENT_VEHICLE_LOAD_MAGAZINE_1,"%1","%1","%1","%1","%1","1%","%1","%1"
STR_SENT_VEHICLE_AZIMUT_1,"%1","%1","%1","%1","%1","1%","%1","%1"
STR_SENT_VEHICLE_WATCH_TGT_1,"WATCH THAT %1, AT %2","SLEDUJTE - %1 NA %2","%1 BEOBACHTEN, AUF %2","UWAGA NA %1, %2","Внимание: %1 %2!","ATENTION À CE(TTE) %1 À %2","VIGILA EL %1, EN %2","ATTENZIONE A %1, A %2"
STR_SENT_VEHICLE_WATCH_POS_1,"WATCH %1 %2","SLEDUJTE %1 %2","%1 BEOBACHTEN, %2","UWAGA %1 %2","Осторожнее: %1 %2!","ATTENTION, %1 %2","VIGILA %1 %2","ATTENZIONE, %1 %2"
STR_SENT_VEHICLE_MANUAL_FIRE_1,"SWITCHING TO MANUAL FIRE","PŘEPÍNÁM NA MANUÁLNÍ STŘELBU","ZU MANUELLEM FEUERN WECHSELN","PRZEŁĄCZAM NA OGIEŃ RĘCZNY","Переключаюсь на ручной режим ведения огня.","PASSAGE EN TIR MANUEL","CAMBIANDO A FUEGO MANUAL","PASSARE A FUOCO MANUALE"
STR_SENT_VEHICLE_CANCEL_MANUAL_FIRE_1,"DISABLING MANUAL FIRE","VYPÍNÁM MANUÁLNÍ STŘELBU","MANUELLES FEUER ABSTELLEN","WYŁĄCZAM OGIEŃ RĘCZNY","Выключаю ручной режим ведения огня.","DÉSACTIVATION TIR MANUEL","DESACTIVANDO FUEGO MANUAL","DISABILITARE FUOCO MANUALE"
STR_SENT_VEHICLE_FIRE_FAILED_1,"NEGATIVE","NEGATIVNÍ","NEGATIV","NIE","Ответ отрицательный.","NÉGATIF","NEGATIVO","NEGATIVO"
STR_SENT_VEHICLE_FIRE_FAILED_2,"CANNOT FIRE","NEMŮŽU STŘÍLET","KANN NICHT FEUERN","NIE MOGĘ STRZELAĆ","Не могу открыть огонь.","TIR IMPOSSIBLE","IMPOSIBLE DISPARAR","NON È POSSIBILE FAR FUOCO"
STR_SENT_CLAUSE_POSITION,"%1 %2","%1 %2","%1 %2","%1 %2","%1 %2","%1 %2","%1 %2","%1 %2"
STR_SENT_CLAUSE_POSITION_NEAR,"THAT %1 AT %2","%1 U %2","%1 BEI %2","TO %1 %2","%1 в зоне %2!","CE(TTE) %1 À %2","%1 EN %2","%1 A %2"
