digifon.prg
.L[-S=24000]
.C[-2]
; project file pro Pure C (ver. 16. 8. 1991)
; projekt zahajen 9/1993
; posl. zmena zatim 11/1993
=
clstart.o
d:\c\suma\sttos\narod.c
d:\c\suma\sttos\samples.c
;d:\c\suma\stdc\dynbuff.c
d:\c\suma\stdc\infosoub.c
oscdgfon.c (digifon.h,ramdgfon.h)
plydgfon.c (ramdgfon.h)
jindgfon.c (digifon.h,ramdgfon.h)
cchdgfon.c (digifon.h,ramdgfon.h)
mnudgfon.c (digifon.h,ramdgfon.h)
ramdgfon.c (digifon.h,ramdgfon.h)
d:\c\suma\gem\pcmultii.prj
pcfltlib.lib
pcstdlib.lib
pcgemlib.lib
pctoslib.lib
pclnalib.lib
