﻿Following is about static objects (placed in Visitor) not found:

[dhall 11/12/2013 3:06:43 p.m.]:
 From server report file  Rev. 113523
 
 (
 14:02:22 Object id 800090000480001e (30) not found in slot 36,36
 14:02:22 Link cannot be resolved
 14:02:22 Object id 800090000480001e (30) not found in slot 36,36
 14:02:22 Link cannot be resolved
 14:02:22 Object id 800090000480001e (30) not found in slot 36,36
 14:02:22 Link cannot be resolved
 14:02:22 Object id 800090000480001e (30) not found in slot 36,36
 14:02:22 Link cannot be resolved
 14:02:22 Server: Object 2:16735 not found (message 36)
 14:02:22 Object id 800090000480001e (30) not found in slot 36,36
 14:02:22 Link cannot be resolved
 14:02:22 Object id 800090000480001e (30) not found in slot 36,36
 14:02:22 Link cannot be resolved
 14:02:22 Object id 800090000480001e (30) not found in slot 36,36
 14:02:22 Link cannot be resolved
 14:02:22 Server: Object 2:16667 not found (message 50)
 14:02:22 Object id 800090000480001e (30) not found in slot 36,36
 14:02:22 Link cannot be resolved
 14:02:22 Server: Object 2:1112 not found (message 36)
 14:02:22 Object id 800090000480001e (30) not found in slot 36,36
 14:02:22 Link cannot be resolved
 14:02:22 Server: Object 2:11681 not found (message 36)
 14:02:22 Object id 800090000480001e (30) not found in slot 36,36
 14:02:22 Link cannot be resolved
 14:02:22 Object id 800090000480001e (30) not found in slot 36,36
 14:02:22 Link cannot be resolved
 14:02:22 Object id 800090000480001e (30) not found in slot 36,36
 14:02:22 Link cannot be resolved
 14:02:22 Object id 800090000480001e (30) not found in slot 36,36
 14:02:22 Link cannot be resolved
 14:02:22 Object id 800090000480001e (30) not found in slot 36,36
 14:02:22 Link cannot be resolved
 14:02:22 Object id 800090000480001e (30) not found in slot 36,36
 14:02:22 Link cannot be resolved
 14:02:22 Object id 800090000480001e (30) not found in slot 36,36
 14:02:22 Link cannot be resolved
 )
