﻿(
Error in expression <]; 
								} foreach groupSelectedUnits player;
							} else {
								_veh = v>
  Error position: <player;
							} else {
								_veh = v>
  Error Missing ;
)

Will fix once SVN download is finished..
