﻿Pretty please Bebul :)

Would make it easier to check the server version/see if the UK server is up-to-date.

Atm its only MAJOR.MINOR like 1.62.
[bebul 28.1.2013 13:06:00]:
 BuildNo in server console window caption
 rev.101343

[qeberle 29.01.2013 10:15:32]:
 Cheers :]
