~0~~~~~~~~
xxxx~0~$promenna~A+5~$nnnnn~$neco~A+X~B+Y~C+Z~
Jmeno~0~$promenna~A+5~$nnnnn~$neco~A+X~B+Y~C+Z~
Test~0~werwrwqrqw~wrqwr~$sr~$wewr~werwer~rwert~terter~
ewrw~1~~~~~~~@~
werwe~1~$werw~$wepoi~$sds~$poirep~$reor[~$ocdcs~C~
