horizont.o
.L[-J]
=
arihori.s ; fixed skalarni, vektorova a maticova aritmetika
asmhori.s ; optimalizace
hrahori.c (horizont.h) ; hrany a plochy
prohori.c (horizont.h) ; projekce a rotace
vedhori.c (horizont.h) ; normaly a barvy
ramhori.c (horizont.h) ; algoitmus viditenosti
objhori.c (horizont.h) ; objekty - sprava a umistovani
morhori.c (horizont.h) ; morfing predmetu
dkrhori.c (horizont.h) ; DSP kresleni
;kresleni.s ; nizkour. kresleni (TC a monochrom)
dsphori.s ; nizkour. obsluha
dsphorip.s ; nizkour. obsluha
;dsphornb.s ; nizkour. obsluha - bez blitteru
