﻿Nové odkazy:

- [Jirkovo pískoviště](data/19cc3f57-c2c6-452f-9f4f-4cc6a4598f7c.txt)
- data/19cc3f57-c2c6-452f-9f4f-4cc6a4598f7c.txt


data/19cc3f57-c2c6-452f-9f4f-4cc6a4598f7c.txt?server=dev.bistudio.com&database=colabo&id=23

data/19cc3f57-c2c6-452f-9f4f-4cc6a4598f7c.txt?server=dev.bistudio.com&database=colabo

data/19cc3f57-c2c6-452f-9f4f-4cc6a4598f7c.txt?id=23

data/19cc3f57-c2c6-452f-9f4f-4cc6a4598f7c.txt?server=dev.bistudio.com&database=sandbox



-----
***ondra** (22.1.2010 8:54:57)*: Co když odkaz naruším?

data/19cc3f57-c2c6-452f-9f4f-4cc6a4598f7c.txt?id=22

data/19cc3f57-c2c6-452f-9f4f-4cc6a4598f7c.txt
