﻿Arma 1, Německo

Prosím o vygenrování 3.000 cd klíčů.


_____
**jirka** (19.3.2010 10:51:00)

Klíče jsou vygenerovány, k nalezení na obvyklém místě.


_____
**maruk** (23.3.2010 12:32:26)

Posláno do gamespy.