/* XPM */
static char * ParamArray_xpm[] = {
"16 16 4 1",
" 	c #FF00FF",
".	c #FFFFFF",
"+	c #5B5B5B",
"@	c #FF0000",
"................",
".....++++++.....",
"....++++++++....",
"...+++....+++...",
"..+++......+++..",
".+++...++...+++.",
".+++..++++..+++.",
".+++..++++..+++.",
".+++........+++.",
".+++........+++.",
".+++..++++..+++.",
"..++..++++..++..",
"...++++++++++...",
"....++++++++....",
".....++++++.....",
"................"};
