syntsum.prg
.L[-S=24000]
; project file pro Pure C (ver. 16. 8. 1991)
; projekt zahajen 11/1993
; posl. zmena zatim 11/1993
=
pcvstart.o
\c\suma\sttos\narod.c
oknsum.c (ramsum.h,syntsum.h)
mnusum.c (ramsum.h,syntsum.h)
dspsum.c (ramsum.h)
ramsum.c (ramsum.h,syntsum.h)
\c\suma\gem\pcmultii.prj
pcfltlib.lib
pcstdlib.lib
pcgemlib.lib
pctoslib.lib
pclnalib.lib
