/* XPM */
static char * ParamClassDecl_xpm[] = {
"16 16 4 1",
" 	c #fa0000",
".	c None",
"+	c #A00000",
"@	c #FFFFFF",
"................",
".....++++++.....",
"....++++++++....",
"...+++@@@@+++...",
"..+++@@@@@@+++..",
".+++@@@++@@++++.",
".+++@@+++++++++.",
".+++@@+++++++++.",
".+++@@+++++++++.",
".+++@@+++++++++.",
".+++@@@++@@++++.",
"..+++@@@@@@+++..",
"...+++@@@@+++...",
"....++++++++....",
".....++++++.....",
"................"};
